{
  "name": "A FA2 Template",
  "version": "FA2",
  "description": "This is a didactic reference implementation of FA2, a.k.a. TZIP-012, using SmartPy.\n\nThis particular contract uses the configuration named: FA2.",
  "interfaces": [ "TZIP-012", "TZIP-016" ],
  "views": [
    {
      "name": "get_balance",
      "pure": true,
      "description": "This is the `get_balance` view defined in TZIP-12.",
      "implementations": [
        {
          "michelsonStorageView": {
            "parameter": { "prim": "pair", "args": [ { "prim": "address" }, { "prim": "nat" } ] },
            "returnType": { "prim": "nat" },
            "code": [
              { "prim": "UNPAIR" },
              { "prim": "DUP" },
              { "prim": "CDR" },
              { "prim": "SWAP" },
              { "prim": "DUP" },
              { "prim": "DUG", "args": [ { "int": "2" } ] },
              { "prim": "CAR" },
              { "prim": "PAIR" },
              { "prim": "DUP", "args": [ { "int": "3" } ] },
              { "prim": "CAR" },
              { "prim": "GET", "args": [ { "int": "3" } ] },
              { "prim": "DIG", "args": [ { "int": "2" } ] },
              { "prim": "CDR" },
              { "prim": "MEM" },
              { "prim": "IF", "args": [ [], [ { "prim": "PUSH", "args": [ { "prim": "string" }, { "string": "FA2_TOKEN_UNDEFINED" } ] }, { "prim": "FAILWITH" } ] ] },
              { "prim": "SWAP" },
              { "prim": "CAR" },
              { "prim": "CAR" },
              { "prim": "CAR" },
              { "prim": "SWAP" },
              { "prim": "GET" },
              { "prim": "IF_NONE", "args": [ [ { "prim": "PUSH", "args": [ { "prim": "int" }, { "int": "146" } ] }, { "prim": "FAILWITH" } ], [] ] }
            ]
          }
        }
      ]
    },
    {
      "name": "token_metadata",
      "pure": true,
      "description": "Return the token-metadata URI for the given token.",
      "implementations": [
        {
          "michelsonStorageView": {
            "parameter": { "prim": "nat" },
            "returnType": { "prim": "pair", "args": [ { "prim": "nat" }, { "prim": "map", "args": [ { "prim": "string" }, { "prim": "bytes" } ] } ] },
            "code": [
              { "prim": "UNPAIR" },
              { "prim": "SWAP" },
              { "prim": "CAR" },
              { "prim": "GET", "args": [ { "int": "3" } ] },
              { "prim": "SWAP" },
              { "prim": "GET" },
              { "prim": "IF_NONE", "args": [ [ { "prim": "PUSH", "args": [ { "prim": "int" }, { "int": "154" } ] }, { "prim": "FAILWITH" } ], [] ] }
            ]
          }
        }
      ]
    },
    {
      "name": "does_token_exist",
      "pure": true,
      "description": "Ask whether a token ID is exists.",
      "implementations": [
        {
          "michelsonStorageView": {
            "parameter": { "prim": "nat" },
            "returnType": { "prim": "bool" },
            "code": [ { "prim": "UNPAIR" }, { "prim": "SWAP" }, { "prim": "CAR" }, { "prim": "GET", "args": [ { "int": "3" } ] }, { "prim": "SWAP" }, { "prim": "MEM" } ]
          }
        }
      ]
    },
    {
      "name": "total_supply",
      "pure": true,
      "description": "Get the total supply of a specific token.",
      "implementations": [
        {
          "michelsonStorageView": {
            "parameter": { "prim": "nat" },
            "returnType": { "prim": "nat" },
            "code": [
              { "prim": "UNPAIR" },
              { "prim": "SWAP" },
              { "prim": "CAR" },
              { "prim": "GET", "args": [ { "int": "4" } ] },
              { "prim": "SWAP" },
              { "prim": "GET" },
              { "prim": "IF_NONE", "args": [ [ { "prim": "PUSH", "args": [ { "prim": "int" }, { "int": "170" } ] }, { "prim": "FAILWITH" } ], [] ] }
            ]
          }
        }
      ]
    },
    {
      "name": "is_operator",
      "pure": true,
      "description": "Verify if a operator is allowed to transfer tokens owned by other address.",
      "implementations": [
        {
          "michelsonStorageView": {
            "parameter": { "prim": "pair", "args": [ { "prim": "address" }, { "prim": "pair", "args": [ { "prim": "address" }, { "prim": "nat" } ] } ] },
            "returnType": { "prim": "bool" },
            "code": [ { "prim": "UNPAIR" }, { "prim": "SWAP" }, { "prim": "CAR" }, { "prim": "CAR" }, { "prim": "CDR" }, { "prim": "SWAP" }, { "prim": "MEM" } ]
          }
        }
      ]
    }
  ]
}