{
  "prim": "Pair",
  "args": [
    { "prim": "Pair", "args": [ { "prim": "Pair", "args": [ [], [] ] }, { "prim": "Pair", "args": [ [], [] ] } ] },
    {
      "prim": "Pair",
      "args": [
        { "prim": "Pair", "args": [ { "string": "<admin address>" }, { "prim": "False" } ] },
        [
          {
            "prim": "Elt",
            "args": [ { "string": "" }, { "bytes": "697066733a2f2f516d616941556a3146464e4759547538724c426a633365654e3963534b7761463845474d424e446d687a504e4664" } ]
          }
        ]
      ]
    }
  ]
}