[
  {
    "prim": "storage",
    "args": [
      {
        "prim": "pair",
        "args": [
          { "prim": "int", "annots": [ "%counter1" ] },
          { "prim": "pair", "args": [ { "prim": "int", "annots": [ "%counter2" ] }, { "prim": "nat", "annots": [ "%counter3" ] } ] }
        ]
      }
    ]
  },
  {
    "prim": "parameter",
    "args": [
      {
        "prim": "or",
        "args": [
          { "prim": "or", "args": [ { "prim": "unit", "annots": [ "%div" ] }, { "prim": "unit", "annots": [ "%equal" ] } ] },
          {
            "prim": "or",
            "args": [
              { "prim": "unit", "annots": [ "%minus" ] },
              { "prim": "or", "args": [ { "prim": "unit", "annots": [ "%mul" ] }, { "prim": "unit", "annots": [ "%plus" ] } ] }
            ]
          }
        ]
      }
    ]
  },
  {
    "prim": "code",
    "args": [
      [
        { "prim": "UNPAIR" },
        {
          "prim": "IF_LEFT",
          "args": [
            [
              {
                "prim": "IF_LEFT",
                "args": [
                  [
                    { "prim": "DROP" },
                    { "prim": "PUSH", "args": [ { "prim": "nat" }, { "int": "1" } ] },
                    { "prim": "DUP" },
                    { "prim": "EDIV" },
                    { "prim": "IF_NONE", "args": [ [ { "prim": "PUSH", "args": [ { "prim": "int" }, { "int": "43" } ] }, { "prim": "FAILWITH" } ], [ { "prim": "CAR" } ] ] },
                    { "prim": "UPDATE", "args": [ { "int": "4" } ] }
                  ],
                  [ { "prim": "DROP" }, { "prim": "PUSH", "args": [ { "prim": "int" }, { "int": "1" } ] }, { "prim": "UPDATE", "args": [ { "int": "1" } ] } ]
                ]
              }
            ],
            [
              {
                "prim": "IF_LEFT",
                "args": [
                  [
                    { "prim": "DROP" },
                    { "prim": "PUSH", "args": [ { "prim": "int" }, { "int": "1" } ] },
                    { "prim": "DUP" },
                    { "prim": "SUB" },
                    { "prim": "UPDATE", "args": [ { "int": "1" } ] },
                    { "prim": "DUP" },
                    { "prim": "CAR" },
                    { "prim": "PUSH", "args": [ { "prim": "int" }, { "int": "1" } ] },
                    { "prim": "SWAP" },
                    { "prim": "SUB" },
                    { "prim": "UPDATE", "args": [ { "int": "1" } ] },
                    { "prim": "DUP" },
                    { "prim": "DUP" },
                    { "prim": "CAR" },
                    { "prim": "PUSH", "args": [ { "prim": "int" }, { "int": "1" } ] },
                    { "prim": "DIG", "args": [ { "int": "3" } ] },
                    { "prim": "GET", "args": [ { "int": "3" } ] },
                    { "prim": "SUB" },
                    { "prim": "SWAP" },
                    { "prim": "SUB" },
                    { "prim": "UPDATE", "args": [ { "int": "1" } ] }
                  ],
                  [
                    {
                      "prim": "IF_LEFT",
                      "args": [
                        [
                          { "prim": "DROP" },
                          { "prim": "PUSH", "args": [ { "prim": "int" }, { "int": "1" } ] },
                          { "prim": "DUP" },
                          { "prim": "MUL" },
                          { "prim": "UPDATE", "args": [ { "int": "1" } ] },
                          { "prim": "DUP" },
                          { "prim": "CAR" },
                          { "prim": "PUSH", "args": [ { "prim": "int" }, { "int": "1" } ] },
                          { "prim": "SWAP" },
                          { "prim": "MUL" },
                          { "prim": "UPDATE", "args": [ { "int": "1" } ] },
                          { "prim": "DUP" },
                          { "prim": "DUP" },
                          { "prim": "CAR" },
                          { "prim": "PUSH", "args": [ { "prim": "int" }, { "int": "1" } ] },
                          { "prim": "DIG", "args": [ { "int": "3" } ] },
                          { "prim": "GET", "args": [ { "int": "3" } ] },
                          { "prim": "MUL" },
                          { "prim": "SWAP" },
                          { "prim": "MUL" },
                          { "prim": "UPDATE", "args": [ { "int": "1" } ] }
                        ],
                        [
                          { "prim": "DROP" },
                          { "prim": "PUSH", "args": [ { "prim": "int" }, { "int": "1" } ] },
                          { "prim": "DUP" },
                          { "prim": "ADD" },
                          { "prim": "UPDATE", "args": [ { "int": "1" } ] },
                          { "prim": "DUP" },
                          { "prim": "CAR" },
                          { "prim": "PUSH", "args": [ { "prim": "int" }, { "int": "1" } ] },
                          { "prim": "ADD" },
                          { "prim": "UPDATE", "args": [ { "int": "1" } ] },
                          { "prim": "DUP" },
                          { "prim": "DUP" },
                          { "prim": "CAR" },
                          { "prim": "PUSH", "args": [ { "prim": "int" }, { "int": "1" } ] },
                          { "prim": "DIG", "args": [ { "int": "3" } ] },
                          { "prim": "GET", "args": [ { "int": "3" } ] },
                          { "prim": "ADD" },
                          { "prim": "ADD" },
                          { "prim": "UPDATE", "args": [ { "int": "1" } ] }
                        ]
                      ]
                    }
                  ]
                ]
              }
            ]
          ]
        },
        { "prim": "NIL", "args": [ { "prim": "operation" } ] },
        { "prim": "PAIR" }
      ]
    ]
  }
]