[
    {
        "kind": "test",
        "scenario": [
            {
                "action": "newContract",
                "name": "A",
                "id": "(static_id 0 (\"Inheritance.ts\" 22))",
                "export": "(\n            template_id (static_id 0 (\"Inheritance.ts\" 22))\n            storage (record (\"Inheritance.ts\" 8) (paused (literal (bool False) (\"Inheritance.ts\" 9))) (value (variant \"None\" (unit) (\"Inheritance.ts\" 10))))\n            storage_type ((record ((paused \"bool\") (value (option \"nat\"))) None))\n            messages ((ep1 True False False False (\"Inheritance.ts\" 16) ((verify (not (attr (data) \"paused\" (\"Inheritance.ts\" 18)) (\"Inheritance.ts\" 18)) (\"Inheritance.ts\" 18)))) (ep2 True False False True (\"Inheritance.ts\" 24) ((set_type (params (\"Inheritance.ts\" 24)) \"nat\" (\"Inheritance.ts\" 25)) (set (attr (data) \"value\" (\"Inheritance.ts\" 26)) (variant \"Some\" (params (\"Inheritance.ts\" 26)) (\"Inheritance.ts\" 26)) (\"Inheritance.ts\" 26)))))\n            flags ()\n            globals ()\n            views ()\n            entry_points_layout ()\n            initial_metadata ()\n            balance (literal (mutez 0) (\"Inheritance.ts\" 22))\n        )",
                "line_no": "(\"Inheritance.ts\" 22)",
                "show": true,
                "accept_unknown_types": false
            },
            {
                "action": "message",
                "line_no": "(\"Inheritance.ts\" 32)",
                "message": "ep2",
                "id": "(static_id 0 (\"Inheritance.ts\" 32))",
                "params": "(literal (nat 1) (\"Inheritance.ts\" 32))"
            }
        ],
        "name": "A",
        "longname": "A",
        "shortname": "A",
        "profile": false,
        "show": true
    },
    {
        "kind": "compilation",
        "name": "compiled",
        "scenario": [
            {
                "action": "newContract",
                "name": "A",
                "id": "(static_id 0 (\"Inheritance.ts\" 22))",
                "export": "(\n            template_id (static_id 0 (\"Inheritance.ts\" 22))\n            storage (record (\"Inheritance.ts\" 37) (paused (literal (bool True) (\"Inheritance.ts\" 38))) (value (variant \"None\" (unit) (\"Inheritance.ts\" 39))))\n            storage_type ((record ((paused \"bool\") (value (option \"nat\"))) None))\n            messages ((ep1 True False False False (\"Inheritance.ts\" 16) ((verify (not (attr (data) \"paused\" (\"Inheritance.ts\" 18)) (\"Inheritance.ts\" 18)) (\"Inheritance.ts\" 18)))) (ep2 True False False True (\"Inheritance.ts\" 24) ((set_type (params (\"Inheritance.ts\" 24)) \"nat\" (\"Inheritance.ts\" 25)) (set (attr (data) \"value\" (\"Inheritance.ts\" 26)) (variant \"Some\" (params (\"Inheritance.ts\" 26)) (\"Inheritance.ts\" 26)) (\"Inheritance.ts\" 26)))))\n            flags ()\n            globals ()\n            views ()\n            entry_points_layout ()\n            initial_metadata ()\n            balance (literal (mutez 0) (\"Inheritance.ts\" 22))\n        )",
                "line_no": "(\"Inheritance.ts\" 22)",
                "show": true,
                "accept_unknown_types": false
            }
        ],
        "longname": "compiled",
        "shortname": "compiled",
        "show": false
    }
]