[
    {
        "kind": "test",
        "scenario": [
            {
                "action": "newContract",
                "name": "Minimal",
                "id": "(static_id 0 (\"Minimal.ts\" 5))",
                "export": "(\n            template_id (static_id 0 (\"Minimal.ts\" 5))\n            storage (record (\"Minimal.ts\" 7) (value (literal (nat 1) (\"Minimal.ts\" 8))))\n            storage_type ((record ((value \"nat\")) None))\n            messages ((ep True False False True (\"Minimal.ts\" 11) ((set_type (params (\"Minimal.ts\" 11)) \"nat\" (\"Minimal.ts\" 12)) (set (attr (data) \"value\" (\"Minimal.ts\" 13)) (params (\"Minimal.ts\" 13)) (\"Minimal.ts\" 13)))))\n            flags ()\n            globals ()\n            views ()\n            entry_points_layout ()\n            initial_metadata ()\n            balance (literal (mutez 1000000) (\"Minimal.ts\" 5))\n        )",
                "line_no": "(\"Minimal.ts\" 5)",
                "show": true,
                "accept_unknown_types": false
            },
            {
                "action": "message",
                "line_no": "(\"Minimal.ts\" 20)",
                "message": "ep",
                "id": "(static_id 0 (\"Minimal.ts\" 20))",
                "params": "(literal (nat 1) (\"Minimal.ts\" 20))"
            }
        ],
        "name": "Minimal",
        "longname": "Minimal",
        "shortname": "Minimal",
        "profile": false,
        "show": true
    },
    {
        "kind": "compilation",
        "name": "minimal",
        "scenario": [
            {
                "action": "newContract",
                "name": "Minimal",
                "id": "(static_id 0 (\"Minimal.ts\" 5))",
                "export": "(\n            template_id (static_id 0 (\"Minimal.ts\" 5))\n            storage (record (\"Minimal.ts\" 7) (value (literal (nat 1) (\"Minimal.ts\" 8))))\n            storage_type ((record ((value \"nat\")) None))\n            messages ((ep True False False True (\"Minimal.ts\" 11) ((set_type (params (\"Minimal.ts\" 11)) \"nat\" (\"Minimal.ts\" 12)) (set (attr (data) \"value\" (\"Minimal.ts\" 13)) (params (\"Minimal.ts\" 13)) (\"Minimal.ts\" 13)))))\n            flags ()\n            globals ()\n            views ()\n            entry_points_layout ()\n            initial_metadata ()\n            balance (literal (mutez 0) (\"Minimal.ts\" 5))\n        )",
                "line_no": "(\"Minimal.ts\" 5)",
                "show": true,
                "accept_unknown_types": false
            }
        ],
        "longname": "minimal",
        "shortname": "minimal",
        "show": false
    }
]