[
    {
        "kind": "test",
        "scenario": [
            {
                "action": "newContract",
                "name": "FA1_2",
                "id": "(static_id 0 (\"FA1_2.ts\" 141))",
                "export": "(\n            template_id (static_id 0 (\"FA1_2.ts\" 141))\n            storage (record (\"FA1_2.ts\" 74) (balances (big_map (\"FA1_2.ts\" 79) )) (config (record (\"FA1_2.ts\" 75) (admin (literal (address \"tz1Ke2h7sDdakHJQh8WX4Z372du1KChsksyU\") (\"FA1_2.ts\" 76))) (paused (literal (bool False) (\"FA1_2.ts\" 77))))) (metadata (big_map (\"FA1_2.ts\" 81) )) (token_metadata (big_map (\"FA1_2.ts\" 82) )) (totalSupply (literal (nat 0) (\"FA1_2.ts\" 80))))\n            storage_type ((record ((balances (bigmap \"address\" (record ((approvals (map \"address\" \"nat\")) (balance \"nat\")) (Some Right)))) (config (record ((admin \"address\") (paused \"bool\")) None)) (metadata (bigmap \"string\" \"bytes\")) (token_metadata (bigmap \"nat\" (record ((token_id \"nat\") (token_info (map \"string\" \"bytes\"))) (Some Right)))) (totalSupply \"nat\")) None))\n            messages ((approve True False False True (\"FA1_2.ts\" 143) ((set_type (params (\"FA1_2.ts\" 143)) (record ((spender \"address\") (value \"nat\")) (Some ((\"spender\") (\"value\")))) (\"FA1_2.ts\" 36)) (verify (not (attr (attr (data) \"config\" (\"FA1_2.ts\" 123)) \"paused\" (\"FA1_2.ts\" 123)) (\"FA1_2.ts\" 123)) (literal (string \"FA1.2_Paused\") (\"FA1_2.ts\" 5)) (\"FA1_2.ts\" 123)) (ifBlock (not (contains (attr (data) \"balances\" (\"FA1_2.ts\" 138)) (sender) (\"FA1_2.ts\" 138)) (\"FA1_2.ts\" 147)) ((defineLocal \"value\" (record (\"FA1_2.ts\" 148) (approvals (map (\"FA1_2.ts\" 148) )) (balance (literal (nat 0) (\"FA1_2.ts\" 148)))) (\"FA1_2.ts\" 148)) (set (getItem (attr (data) \"balances\" (\"FA1_2.ts\" 149)) (sender) (\"FA1_2.ts\" 149)) (getLocal \"value\" (\"FA1_2.ts\" 149)) (\"FA1_2.ts\" 149))) (\"FA1_2.ts\" 147)) (verify (or (eq (getItemDefault (attr (getItem (attr (data) \"balances\" (\"FA1_2.ts\" 152)) (sender) (\"FA1_2.ts\" 152)) \"approvals\" (\"FA1_2.ts\" 152)) (attr (params (\"FA1_2.ts\" 152)) \"spender\" (\"FA1_2.ts\" 152)) (literal (intOrNat 0) (\"FA1_2.ts\" 152)) (\"FA1_2.ts\" 152)) (literal (intOrNat 0) (\"FA1_2.ts\" 152)) (\"FA1_2.ts\" 152)) (eq (attr (params (\"FA1_2.ts\" 152)) \"value\" (\"FA1_2.ts\" 152)) (literal (intOrNat 0) (\"FA1_2.ts\" 152)) (\"FA1_2.ts\" 152)) (\"FA1_2.ts\" 152)) (literal (string \"FA1.2_UnsafeAllowanceChange\") (\"FA1_2.ts\" 4)) (\"FA1_2.ts\" 151)) (set (getItem (attr (getItem (attr (data) \"balances\" (\"FA1_2.ts\" 156)) (sender) (\"FA1_2.ts\" 156)) \"approvals\" (\"FA1_2.ts\" 156)) (attr (params (\"FA1_2.ts\" 156)) \"spender\" (\"FA1_2.ts\" 156)) (\"FA1_2.ts\" 156)) (attr (params (\"FA1_2.ts\" 156)) \"value\" (\"FA1_2.ts\" 156)) (\"FA1_2.ts\" 156)))) (burn True False False True (\"FA1_2.ts\" 159) ((set_type (params (\"FA1_2.ts\" 159)) (record ((address \"address\") (value \"nat\")) (Some ((\"address\") (\"value\")))) (\"FA1_2.ts\" 44)) (verify (eq (sender) (attr (attr (data) \"config\" (\"FA1_2.ts\" 131)) \"admin\" (\"FA1_2.ts\" 131)) (\"FA1_2.ts\" 131)) (literal (string \"FA1.2_NotAdmin\") (\"FA1_2.ts\" 2)) (\"FA1_2.ts\" 131)) (verify (ge (attr (getItem (attr (data) \"balances\" (\"FA1_2.ts\" 163)) (attr (params (\"FA1_2.ts\" 163)) \"address\" (\"FA1_2.ts\" 163)) (\"FA1_2.ts\" 163)) \"balance\" (\"FA1_2.ts\" 163)) (attr (params (\"FA1_2.ts\" 163)) \"value\" (\"FA1_2.ts\" 163)) (\"FA1_2.ts\" 163)) (literal (string \"FA1.2_InsufficientBalance\") (\"FA1_2.ts\" 3)) (\"FA1_2.ts\" 163)) (set (attr (getItem (attr (data) \"balances\" (\"FA1_2.ts\" 164)) (attr (params (\"FA1_2.ts\" 164)) \"address\" (\"FA1_2.ts\" 164)) (\"FA1_2.ts\" 164)) \"balance\" (\"FA1_2.ts\" 164)) (openVariant (isNat (sub (attr (getItem (attr (data) \"balances\" (\"FA1_2.ts\" 164)) (attr (params (\"FA1_2.ts\" 164)) \"address\" (\"FA1_2.ts\" 164)) (\"FA1_2.ts\" 164)) \"balance\" (\"FA1_2.ts\" 164)) (attr (params (\"FA1_2.ts\" 165)) \"value\" (\"FA1_2.ts\" 165)) (\"FA1_2.ts\" 164)) (\"FA1_2.ts\" 164)) \"Some\" \"None\" (\"FA1_2.ts\" 164)) (\"FA1_2.ts\" 164)) (set (attr (data) \"totalSupply\" (\"FA1_2.ts\" 166)) (openVariant (isNat (sub (attr (data) \"totalSupply\" (\"FA1_2.ts\" 166)) (attr (params (\"FA1_2.ts\" 166)) \"value\" (\"FA1_2.ts\" 166)) (\"FA1_2.ts\" 166)) (\"FA1_2.ts\" 166)) \"Some\" \"None\" (\"FA1_2.ts\" 166)) (\"FA1_2.ts\" 166)))) (mint True False False True (\"FA1_2.ts\" 169) ((set_type (params (\"FA1_2.ts\" 169)) (record ((address \"address\") (value \"nat\")) (Some ((\"address\") (\"value\")))) (\"FA1_2.ts\" 52)) (verify (eq (sender) (attr (attr (data) \"config\" (\"FA1_2.ts\" 131)) \"admin\" (\"FA1_2.ts\" 131)) (\"FA1_2.ts\" 131)) (literal (string \"FA1.2_NotAdmin\") (\"FA1_2.ts\" 2)) (\"FA1_2.ts\" 131)) (ifBlock (not (contains (attr (data) \"balances\" (\"FA1_2.ts\" 138)) (attr (params (\"FA1_2.ts\" 173)) \"address\" (\"FA1_2.ts\" 173)) (\"FA1_2.ts\" 138)) (\"FA1_2.ts\" 173)) ((defineLocal \"value\" (record (\"FA1_2.ts\" 174) (approvals (map (\"FA1_2.ts\" 174) )) (balance (literal (nat 0) (\"FA1_2.ts\" 174)))) (\"FA1_2.ts\" 174)) (set (getItem (attr (data) \"balances\" (\"FA1_2.ts\" 175)) (attr (params (\"FA1_2.ts\" 175)) \"address\" (\"FA1_2.ts\" 175)) (\"FA1_2.ts\" 175)) (getLocal \"value\" (\"FA1_2.ts\" 175)) (\"FA1_2.ts\" 175))) (\"FA1_2.ts\" 173)) (set (attr (getItem (attr (data) \"balances\" (\"FA1_2.ts\" 177)) (attr (params (\"FA1_2.ts\" 177)) \"address\" (\"FA1_2.ts\" 177)) (\"FA1_2.ts\" 177)) \"balance\" (\"FA1_2.ts\" 177)) (add (attr (getItem (attr (data) \"balances\" (\"FA1_2.ts\" 177)) (attr (params (\"FA1_2.ts\" 177)) \"address\" (\"FA1_2.ts\" 177)) (\"FA1_2.ts\" 177)) \"balance\" (\"FA1_2.ts\" 177)) (attr (params (\"FA1_2.ts\" 177)) \"value\" (\"FA1_2.ts\" 177)) (\"FA1_2.ts\" 177)) (\"FA1_2.ts\" 177)) (set (attr (data) \"totalSupply\" (\"FA1_2.ts\" 178)) (add (attr (data) \"totalSupply\" (\"FA1_2.ts\" 178)) (attr (params (\"FA1_2.ts\" 178)) \"value\" (\"FA1_2.ts\" 178)) (\"FA1_2.ts\" 178)) (\"FA1_2.ts\" 178)))) (setAdministrator True False False True (\"FA1_2.ts\" 181) ((set_type (params (\"FA1_2.ts\" 181)) \"address\" (\"FA1_2.ts\" 182)) (verify (eq (sender) (attr (attr (data) \"config\" (\"FA1_2.ts\" 131)) \"admin\" (\"FA1_2.ts\" 131)) (\"FA1_2.ts\" 131)) (literal (string \"FA1.2_NotAdmin\") (\"FA1_2.ts\" 2)) (\"FA1_2.ts\" 131)) (set (attr (attr (data) \"config\" (\"FA1_2.ts\" 185)) \"admin\" (\"FA1_2.ts\" 185)) (params (\"FA1_2.ts\" 185)) (\"FA1_2.ts\" 185)))) (setPause True False False True (\"FA1_2.ts\" 188) ((set_type (params (\"FA1_2.ts\" 188)) \"bool\" (\"FA1_2.ts\" 189)) (verify (eq (sender) (attr (attr (data) \"config\" (\"FA1_2.ts\" 131)) \"admin\" (\"FA1_2.ts\" 131)) (\"FA1_2.ts\" 131)) (literal (string \"FA1.2_NotAdmin\") (\"FA1_2.ts\" 2)) (\"FA1_2.ts\" 131)) (set (attr (attr (data) \"config\" (\"FA1_2.ts\" 192)) \"paused\" (\"FA1_2.ts\" 192)) (params (\"FA1_2.ts\" 192)) (\"FA1_2.ts\" 192)))) (transfer True False False True (\"FA1_2.ts\" 195) ((set_type (params (\"FA1_2.ts\" 195)) (record ((from \"address\") (to \"address\") (value \"nat\")) (Some ((\"from\") ((\"to\") (\"value\"))))) (\"FA1_2.ts\" 60)) (verify (not (attr (attr (data) \"config\" (\"FA1_2.ts\" 123)) \"paused\" (\"FA1_2.ts\" 123)) (\"FA1_2.ts\" 123)) (literal (string \"FA1.2_Paused\") (\"FA1_2.ts\" 5)) (\"FA1_2.ts\" 123)) (verify (or (eq (attr (params (\"FA1_2.ts\" 204)) \"from\" (\"FA1_2.ts\" 204)) (sender) (\"FA1_2.ts\" 204)) (ge (getItem (attr (getItem (attr (data) \"balances\" (\"FA1_2.ts\" 205)) (attr (params (\"FA1_2.ts\" 205)) \"from\" (\"FA1_2.ts\" 205)) (\"FA1_2.ts\" 205)) \"approvals\" (\"FA1_2.ts\" 205)) (sender) (\"FA1_2.ts\" 205)) (attr (params (\"FA1_2.ts\" 205)) \"value\" (\"FA1_2.ts\" 205)) (\"FA1_2.ts\" 205)) (\"FA1_2.ts\" 204)) (literal (string \"FA1.2_NotAllowed\") (\"FA1_2.ts\" 6)) (\"FA1_2.ts\" 203)) (ifBlock (not (contains (attr (data) \"balances\" (\"FA1_2.ts\" 138)) (attr (params (\"FA1_2.ts\" 210)) \"from\" (\"FA1_2.ts\" 210)) (\"FA1_2.ts\" 138)) (\"FA1_2.ts\" 210)) ((defineLocal \"value\" (record (\"FA1_2.ts\" 211) (approvals (map (\"FA1_2.ts\" 211) )) (balance (literal (nat 0) (\"FA1_2.ts\" 211)))) (\"FA1_2.ts\" 211)) (set (getItem (attr (data) \"balances\" (\"FA1_2.ts\" 212)) (attr (params (\"FA1_2.ts\" 212)) \"from\" (\"FA1_2.ts\" 212)) (\"FA1_2.ts\" 212)) (getLocal \"value\" (\"FA1_2.ts\" 212)) (\"FA1_2.ts\" 212))) (\"FA1_2.ts\" 210)) (ifBlock (not (contains (attr (data) \"balances\" (\"FA1_2.ts\" 138)) (attr (params (\"FA1_2.ts\" 216)) \"to\" (\"FA1_2.ts\" 216)) (\"FA1_2.ts\" 138)) (\"FA1_2.ts\" 216)) ((defineLocal \"value\" (record (\"FA1_2.ts\" 217) (approvals (map (\"FA1_2.ts\" 217) )) (balance (literal (nat 0) (\"FA1_2.ts\" 217)))) (\"FA1_2.ts\" 217)) (set (getItem (attr (data) \"balances\" (\"FA1_2.ts\" 218)) (attr (params (\"FA1_2.ts\" 218)) \"to\" (\"FA1_2.ts\" 218)) (\"FA1_2.ts\" 218)) (getLocal \"value\" (\"FA1_2.ts\" 218)) (\"FA1_2.ts\" 218))) (\"FA1_2.ts\" 216)) (verify (ge (attr (getItem (attr (data) \"balances\" (\"FA1_2.ts\" 221)) (attr (params (\"FA1_2.ts\" 221)) \"from\" (\"FA1_2.ts\" 221)) (\"FA1_2.ts\" 221)) \"balance\" (\"FA1_2.ts\" 221)) (attr (params (\"FA1_2.ts\" 221)) \"value\" (\"FA1_2.ts\" 221)) (\"FA1_2.ts\" 221)) (literal (string \"FA1.2_InsufficientBalance\") (\"FA1_2.ts\" 3)) (\"FA1_2.ts\" 221)) (set (attr (getItem (attr (data) \"balances\" (\"FA1_2.ts\" 223)) (attr (params (\"FA1_2.ts\" 223)) \"from\" (\"FA1_2.ts\" 223)) (\"FA1_2.ts\" 223)) \"balance\" (\"FA1_2.ts\" 223)) (openVariant (isNat (sub (attr (getItem (attr (data) \"balances\" (\"FA1_2.ts\" 223)) (attr (params (\"FA1_2.ts\" 223)) \"from\" (\"FA1_2.ts\" 223)) (\"FA1_2.ts\" 223)) \"balance\" (\"FA1_2.ts\" 223)) (attr (params (\"FA1_2.ts\" 224)) \"value\" (\"FA1_2.ts\" 224)) (\"FA1_2.ts\" 223)) (\"FA1_2.ts\" 223)) \"Some\" \"None\" (\"FA1_2.ts\" 223)) (\"FA1_2.ts\" 223)) (set (attr (getItem (attr (data) \"balances\" (\"FA1_2.ts\" 225)) (attr (params (\"FA1_2.ts\" 225)) \"to\" (\"FA1_2.ts\" 225)) (\"FA1_2.ts\" 225)) \"balance\" (\"FA1_2.ts\" 225)) (add (attr (getItem (attr (data) \"balances\" (\"FA1_2.ts\" 225)) (attr (params (\"FA1_2.ts\" 225)) \"to\" (\"FA1_2.ts\" 225)) (\"FA1_2.ts\" 225)) \"balance\" (\"FA1_2.ts\" 225)) (attr (params (\"FA1_2.ts\" 225)) \"value\" (\"FA1_2.ts\" 225)) (\"FA1_2.ts\" 225)) (\"FA1_2.ts\" 225)) (ifBlock (neq (attr (params (\"FA1_2.ts\" 228)) \"from\" (\"FA1_2.ts\" 228)) (sender) (\"FA1_2.ts\" 228)) ((defineLocal \"approval\" (openVariant (isNat (sub (getItem (attr (getItem (attr (data) \"balances\" (\"FA1_2.ts\" 229)) (attr (params (\"FA1_2.ts\" 229)) \"from\" (\"FA1_2.ts\" 229)) (\"FA1_2.ts\" 229)) \"approvals\" (\"FA1_2.ts\" 229)) (sender) (\"FA1_2.ts\" 229)) (attr (params (\"FA1_2.ts\" 229)) \"value\" (\"FA1_2.ts\" 229)) (\"FA1_2.ts\" 229)) (\"FA1_2.ts\" 229)) \"Some\" \"None\" (\"FA1_2.ts\" 229)) (\"FA1_2.ts\" 229)) (set (getItem (attr (getItem (attr (data) \"balances\" (\"FA1_2.ts\" 230)) (attr (params (\"FA1_2.ts\" 230)) \"from\" (\"FA1_2.ts\" 230)) (\"FA1_2.ts\" 230)) \"approvals\" (\"FA1_2.ts\" 230)) (sender) (\"FA1_2.ts\" 230)) (getLocal \"approval\" (\"FA1_2.ts\" 230)) (\"FA1_2.ts\" 230))) (\"FA1_2.ts\" 228)))) (updateMetadata True False False True (\"FA1_2.ts\" 234) ((set_type (params (\"FA1_2.ts\" 234)) (bigmap \"string\" \"bytes\") (\"FA1_2.ts\" 235)) (verify (eq (sender) (attr (attr (data) \"config\" (\"FA1_2.ts\" 131)) \"admin\" (\"FA1_2.ts\" 131)) (\"FA1_2.ts\" 131)) (literal (string \"FA1.2_NotAdmin\") (\"FA1_2.ts\" 2)) (\"FA1_2.ts\" 131)) (set (attr (data) \"metadata\" (\"FA1_2.ts\" 238)) (params (\"FA1_2.ts\" 238)) (\"FA1_2.ts\" 238)))) (getAdministrator True False False True (\"FA1_2.ts\" 241) ((set_type (params (\"FA1_2.ts\" 241)) (tuple \"unit\" (contract \"address\")) (\"FA1_2.ts\" 242)) (set (operations (\"FA1_2.ts\" 243)) (cons (transfer (attr (attr (data) \"config\" (\"FA1_2.ts\" 243)) \"admin\" (\"FA1_2.ts\" 243)) (literal (mutez 0) (\"FA1_2.ts\" 243)) (second (params (\"FA1_2.ts\" 243)) (\"FA1_2.ts\" 243)) (\"FA1_2.ts\" 243)) (operations (\"FA1_2.ts\" 243)) (\"FA1_2.ts\" 243)) (\"FA1_2.ts\" 243)))) (getAllowance True False False True (\"FA1_2.ts\" 246) ((set_type (params (\"FA1_2.ts\" 246)) (tuple (record ((owner \"address\") (spender \"address\")) None) (contract \"nat\")) (\"FA1_2.ts\" 247)) (defineLocal \"allowance\" (literal (intOrNat 0) (\"FA1_2.ts\" 248)) (\"FA1_2.ts\" 248)) (ifBlock (contains (attr (data) \"balances\" (\"FA1_2.ts\" 138)) (attr (first (params (\"FA1_2.ts\" 249)) (\"FA1_2.ts\" 249)) \"owner\" (\"FA1_2.ts\" 249)) (\"FA1_2.ts\" 138)) ((set (getLocal \"allowance\" (\"FA1_2.ts\" 250)) (getItemDefault (attr (getItem (attr (data) \"balances\" (\"FA1_2.ts\" 250)) (attr (first (params (\"FA1_2.ts\" 250)) (\"FA1_2.ts\" 250)) \"owner\" (\"FA1_2.ts\" 250)) (\"FA1_2.ts\" 250)) \"approvals\" (\"FA1_2.ts\" 250)) (attr (first (params (\"FA1_2.ts\" 250)) (\"FA1_2.ts\" 250)) \"spender\" (\"FA1_2.ts\" 250)) (literal (intOrNat 0) (\"FA1_2.ts\" 250)) (\"FA1_2.ts\" 250)) (\"FA1_2.ts\" 250))) (\"FA1_2.ts\" 249)) (set (operations (\"FA1_2.ts\" 252)) (cons (transfer (getLocal \"allowance\" (\"FA1_2.ts\" 252)) (literal (mutez 0) (\"FA1_2.ts\" 252)) (second (params (\"FA1_2.ts\" 252)) (\"FA1_2.ts\" 252)) (\"FA1_2.ts\" 252)) (operations (\"FA1_2.ts\" 252)) (\"FA1_2.ts\" 252)) (\"FA1_2.ts\" 252)))) (getBalance True False False True (\"FA1_2.ts\" 255) ((set_type (params (\"FA1_2.ts\" 255)) (tuple \"address\" (contract \"nat\")) (\"FA1_2.ts\" 256)) (defineLocal \"balance\" (literal (intOrNat 0) (\"FA1_2.ts\" 257)) (\"FA1_2.ts\" 257)) (ifBlock (contains (attr (data) \"balances\" (\"FA1_2.ts\" 138)) (first (params (\"FA1_2.ts\" 258)) (\"FA1_2.ts\" 258)) (\"FA1_2.ts\" 138)) ((set (getLocal \"balance\" (\"FA1_2.ts\" 259)) (attr (getItem (attr (data) \"balances\" (\"FA1_2.ts\" 259)) (first (params (\"FA1_2.ts\" 259)) (\"FA1_2.ts\" 259)) (\"FA1_2.ts\" 259)) \"balance\" (\"FA1_2.ts\" 259)) (\"FA1_2.ts\" 259))) (\"FA1_2.ts\" 258)) (set (operations (\"FA1_2.ts\" 261)) (cons (transfer (getLocal \"balance\" (\"FA1_2.ts\" 261)) (literal (mutez 0) (\"FA1_2.ts\" 261)) (second (params (\"FA1_2.ts\" 261)) (\"FA1_2.ts\" 261)) (\"FA1_2.ts\" 261)) (operations (\"FA1_2.ts\" 261)) (\"FA1_2.ts\" 261)) (\"FA1_2.ts\" 261)))) (getTotalSupply True False False True (\"FA1_2.ts\" 264) ((set_type (params (\"FA1_2.ts\" 264)) (tuple \"unit\" (contract \"nat\")) (\"FA1_2.ts\" 265)) (set (operations (\"FA1_2.ts\" 266)) (cons (transfer (attr (data) \"totalSupply\" (\"FA1_2.ts\" 266)) (literal (mutez 0) (\"FA1_2.ts\" 266)) (second (params (\"FA1_2.ts\" 266)) (\"FA1_2.ts\" 266)) (\"FA1_2.ts\" 266)) (operations (\"FA1_2.ts\" 266)) (\"FA1_2.ts\" 266)) (\"FA1_2.ts\" 266)))))\n            flags ()\n            globals ()\n            views ((token_metadata True (\"FA1_2.ts\" 94) True \"Return the token-metadata URI for the given token.\" ( (set_type (params (\"FA1_2.ts\" 94)) \"nat\" (\"FA1_2.ts\" 94))(result (getItem (attr (data) \"token_metadata\" (\"FA1_2.ts\" 95)) (params (\"FA1_2.ts\" 95)) (\"FA1_2.ts\" 95)) (\"FA1_2.ts\" 95)))))\n            entry_points_layout ()\n            initial_metadata ((metadata (meta_map (\"FA1_2.ts\" 141) (elem (literal (string \"name\") (\"FA1_2.ts\" 105)) (meta_expr (literal (string \"SmartPy FA1.2 Token Template\") (\"FA1_2.ts\" 105)))) (elem (literal (string \"description\") (\"FA1_2.ts\" 106)) (meta_expr (literal (string \"Example Template for an FA1.2 Contract from SmartPy\") (\"FA1_2.ts\" 106)))) (elem (literal (string \"authors\") (\"FA1_2.ts\" 107)) (meta_list (\"FA1_2.ts\" 107) (meta_expr (literal (string \"SmartPy Dev Team <email@domain.com>\") (\"FA1_2.ts\" 107))))) (elem (literal (string \"homepage\") (\"FA1_2.ts\" 108)) (meta_expr (literal (string \"https://smartpy.io\") (\"FA1_2.ts\" 108)))) (elem (literal (string \"interfaces\") (\"FA1_2.ts\" 109)) (meta_list (\"FA1_2.ts\" 109) (meta_expr (literal (string \"TZIP-007-2021-04-17\") (\"FA1_2.ts\" 109))) (meta_expr (literal (string \"TZIP-016-2021-04-17\") (\"FA1_2.ts\" 109))))) (elem (literal (string \"views\") (\"FA1_2.ts\" 110)) (meta_list (\"FA1_2.ts\" 110) (meta_offchain_view \"token_metadata\" (\"FA1_2.ts\" 110)))))))\n            balance (literal (mutez 0) (\"FA1_2.ts\" 141))\n        )",
                "line_no": "(\"FA1_2.ts\" 141)",
                "show": true,
                "accept_unknown_types": false
            },
            {
                "action": "message",
                "line_no": "(\"FA1_2.ts\" 272)",
                "message": "mint",
                "id": "(static_id 0 (\"FA1_2.ts\" 272))",
                "params": "(record (\"FA1_2.ts\" 272) (address (literal (address \"KT18amZmM5W7qDWVt2pH6uj7sCEd3kbzLrHT\") (\"FA1_2.ts\" 272))) (value (literal (nat 1000000) (\"FA1_2.ts\" 272))))",
                "sender": "(literal (address \"tz1Ke2h7sDdakHJQh8WX4Z372du1KChsksyU\") (\"FA1_2.ts\" 272))"
            }
        ],
        "name": "FA1_2",
        "longname": "FA1_2",
        "shortname": "FA1_2",
        "profile": false,
        "show": true
    },
    {
        "kind": "compilation",
        "name": "version_1",
        "scenario": [
            {
                "action": "newContract",
                "name": "FA1_2",
                "id": "(static_id 0 (\"FA1_2.ts\" 141))",
                "export": "(\n            template_id (static_id 0 (\"FA1_2.ts\" 141))\n            storage (record (\"FA1_2.ts\" 74) (balances (big_map (\"FA1_2.ts\" 79) )) (config (record (\"FA1_2.ts\" 75) (admin (literal (address \"tz1Ke2h7sDdakHJQh8WX4Z372du1KChsksyU\") (\"FA1_2.ts\" 76))) (paused (literal (bool False) (\"FA1_2.ts\" 77))))) (metadata (big_map (\"FA1_2.ts\" 81) )) (token_metadata (big_map (\"FA1_2.ts\" 82) )) (totalSupply (literal (nat 0) (\"FA1_2.ts\" 80))))\n            storage_type ((record ((balances (bigmap \"address\" (record ((approvals (map \"address\" \"nat\")) (balance \"nat\")) (Some Right)))) (config (record ((admin \"address\") (paused \"bool\")) None)) (metadata (bigmap \"string\" \"bytes\")) (token_metadata (bigmap \"nat\" (record ((token_id \"nat\") (token_info (map \"string\" \"bytes\"))) (Some Right)))) (totalSupply \"nat\")) None))\n            messages ((approve True False False True (\"FA1_2.ts\" 143) ((set_type (params (\"FA1_2.ts\" 143)) (record ((spender \"address\") (value \"nat\")) (Some ((\"spender\") (\"value\")))) (\"FA1_2.ts\" 36)) (verify (not (attr (attr (data) \"config\" (\"FA1_2.ts\" 123)) \"paused\" (\"FA1_2.ts\" 123)) (\"FA1_2.ts\" 123)) (literal (string \"FA1.2_Paused\") (\"FA1_2.ts\" 5)) (\"FA1_2.ts\" 123)) (ifBlock (not (contains (attr (data) \"balances\" (\"FA1_2.ts\" 138)) (sender) (\"FA1_2.ts\" 138)) (\"FA1_2.ts\" 147)) ((defineLocal \"value\" (record (\"FA1_2.ts\" 148) (approvals (map (\"FA1_2.ts\" 148) )) (balance (literal (nat 0) (\"FA1_2.ts\" 148)))) (\"FA1_2.ts\" 148)) (set (getItem (attr (data) \"balances\" (\"FA1_2.ts\" 149)) (sender) (\"FA1_2.ts\" 149)) (getLocal \"value\" (\"FA1_2.ts\" 149)) (\"FA1_2.ts\" 149))) (\"FA1_2.ts\" 147)) (verify (or (eq (getItemDefault (attr (getItem (attr (data) \"balances\" (\"FA1_2.ts\" 152)) (sender) (\"FA1_2.ts\" 152)) \"approvals\" (\"FA1_2.ts\" 152)) (attr (params (\"FA1_2.ts\" 152)) \"spender\" (\"FA1_2.ts\" 152)) (literal (intOrNat 0) (\"FA1_2.ts\" 152)) (\"FA1_2.ts\" 152)) (literal (intOrNat 0) (\"FA1_2.ts\" 152)) (\"FA1_2.ts\" 152)) (eq (attr (params (\"FA1_2.ts\" 152)) \"value\" (\"FA1_2.ts\" 152)) (literal (intOrNat 0) (\"FA1_2.ts\" 152)) (\"FA1_2.ts\" 152)) (\"FA1_2.ts\" 152)) (literal (string \"FA1.2_UnsafeAllowanceChange\") (\"FA1_2.ts\" 4)) (\"FA1_2.ts\" 151)) (set (getItem (attr (getItem (attr (data) \"balances\" (\"FA1_2.ts\" 156)) (sender) (\"FA1_2.ts\" 156)) \"approvals\" (\"FA1_2.ts\" 156)) (attr (params (\"FA1_2.ts\" 156)) \"spender\" (\"FA1_2.ts\" 156)) (\"FA1_2.ts\" 156)) (attr (params (\"FA1_2.ts\" 156)) \"value\" (\"FA1_2.ts\" 156)) (\"FA1_2.ts\" 156)))) (burn True False False True (\"FA1_2.ts\" 159) ((set_type (params (\"FA1_2.ts\" 159)) (record ((address \"address\") (value \"nat\")) (Some ((\"address\") (\"value\")))) (\"FA1_2.ts\" 44)) (verify (eq (sender) (attr (attr (data) \"config\" (\"FA1_2.ts\" 131)) \"admin\" (\"FA1_2.ts\" 131)) (\"FA1_2.ts\" 131)) (literal (string \"FA1.2_NotAdmin\") (\"FA1_2.ts\" 2)) (\"FA1_2.ts\" 131)) (verify (ge (attr (getItem (attr (data) \"balances\" (\"FA1_2.ts\" 163)) (attr (params (\"FA1_2.ts\" 163)) \"address\" (\"FA1_2.ts\" 163)) (\"FA1_2.ts\" 163)) \"balance\" (\"FA1_2.ts\" 163)) (attr (params (\"FA1_2.ts\" 163)) \"value\" (\"FA1_2.ts\" 163)) (\"FA1_2.ts\" 163)) (literal (string \"FA1.2_InsufficientBalance\") (\"FA1_2.ts\" 3)) (\"FA1_2.ts\" 163)) (set (attr (getItem (attr (data) \"balances\" (\"FA1_2.ts\" 164)) (attr (params (\"FA1_2.ts\" 164)) \"address\" (\"FA1_2.ts\" 164)) (\"FA1_2.ts\" 164)) \"balance\" (\"FA1_2.ts\" 164)) (openVariant (isNat (sub (attr (getItem (attr (data) \"balances\" (\"FA1_2.ts\" 164)) (attr (params (\"FA1_2.ts\" 164)) \"address\" (\"FA1_2.ts\" 164)) (\"FA1_2.ts\" 164)) \"balance\" (\"FA1_2.ts\" 164)) (attr (params (\"FA1_2.ts\" 165)) \"value\" (\"FA1_2.ts\" 165)) (\"FA1_2.ts\" 164)) (\"FA1_2.ts\" 164)) \"Some\" \"None\" (\"FA1_2.ts\" 164)) (\"FA1_2.ts\" 164)) (set (attr (data) \"totalSupply\" (\"FA1_2.ts\" 166)) (openVariant (isNat (sub (attr (data) \"totalSupply\" (\"FA1_2.ts\" 166)) (attr (params (\"FA1_2.ts\" 166)) \"value\" (\"FA1_2.ts\" 166)) (\"FA1_2.ts\" 166)) (\"FA1_2.ts\" 166)) \"Some\" \"None\" (\"FA1_2.ts\" 166)) (\"FA1_2.ts\" 166)))) (mint True False False True (\"FA1_2.ts\" 169) ((set_type (params (\"FA1_2.ts\" 169)) (record ((address \"address\") (value \"nat\")) (Some ((\"address\") (\"value\")))) (\"FA1_2.ts\" 52)) (verify (eq (sender) (attr (attr (data) \"config\" (\"FA1_2.ts\" 131)) \"admin\" (\"FA1_2.ts\" 131)) (\"FA1_2.ts\" 131)) (literal (string \"FA1.2_NotAdmin\") (\"FA1_2.ts\" 2)) (\"FA1_2.ts\" 131)) (ifBlock (not (contains (attr (data) \"balances\" (\"FA1_2.ts\" 138)) (attr (params (\"FA1_2.ts\" 173)) \"address\" (\"FA1_2.ts\" 173)) (\"FA1_2.ts\" 138)) (\"FA1_2.ts\" 173)) ((defineLocal \"value\" (record (\"FA1_2.ts\" 174) (approvals (map (\"FA1_2.ts\" 174) )) (balance (literal (nat 0) (\"FA1_2.ts\" 174)))) (\"FA1_2.ts\" 174)) (set (getItem (attr (data) \"balances\" (\"FA1_2.ts\" 175)) (attr (params (\"FA1_2.ts\" 175)) \"address\" (\"FA1_2.ts\" 175)) (\"FA1_2.ts\" 175)) (getLocal \"value\" (\"FA1_2.ts\" 175)) (\"FA1_2.ts\" 175))) (\"FA1_2.ts\" 173)) (set (attr (getItem (attr (data) \"balances\" (\"FA1_2.ts\" 177)) (attr (params (\"FA1_2.ts\" 177)) \"address\" (\"FA1_2.ts\" 177)) (\"FA1_2.ts\" 177)) \"balance\" (\"FA1_2.ts\" 177)) (add (attr (getItem (attr (data) \"balances\" (\"FA1_2.ts\" 177)) (attr (params (\"FA1_2.ts\" 177)) \"address\" (\"FA1_2.ts\" 177)) (\"FA1_2.ts\" 177)) \"balance\" (\"FA1_2.ts\" 177)) (attr (params (\"FA1_2.ts\" 177)) \"value\" (\"FA1_2.ts\" 177)) (\"FA1_2.ts\" 177)) (\"FA1_2.ts\" 177)) (set (attr (data) \"totalSupply\" (\"FA1_2.ts\" 178)) (add (attr (data) \"totalSupply\" (\"FA1_2.ts\" 178)) (attr (params (\"FA1_2.ts\" 178)) \"value\" (\"FA1_2.ts\" 178)) (\"FA1_2.ts\" 178)) (\"FA1_2.ts\" 178)))) (setAdministrator True False False True (\"FA1_2.ts\" 181) ((set_type (params (\"FA1_2.ts\" 181)) \"address\" (\"FA1_2.ts\" 182)) (verify (eq (sender) (attr (attr (data) \"config\" (\"FA1_2.ts\" 131)) \"admin\" (\"FA1_2.ts\" 131)) (\"FA1_2.ts\" 131)) (literal (string \"FA1.2_NotAdmin\") (\"FA1_2.ts\" 2)) (\"FA1_2.ts\" 131)) (set (attr (attr (data) \"config\" (\"FA1_2.ts\" 185)) \"admin\" (\"FA1_2.ts\" 185)) (params (\"FA1_2.ts\" 185)) (\"FA1_2.ts\" 185)))) (setPause True False False True (\"FA1_2.ts\" 188) ((set_type (params (\"FA1_2.ts\" 188)) \"bool\" (\"FA1_2.ts\" 189)) (verify (eq (sender) (attr (attr (data) \"config\" (\"FA1_2.ts\" 131)) \"admin\" (\"FA1_2.ts\" 131)) (\"FA1_2.ts\" 131)) (literal (string \"FA1.2_NotAdmin\") (\"FA1_2.ts\" 2)) (\"FA1_2.ts\" 131)) (set (attr (attr (data) \"config\" (\"FA1_2.ts\" 192)) \"paused\" (\"FA1_2.ts\" 192)) (params (\"FA1_2.ts\" 192)) (\"FA1_2.ts\" 192)))) (transfer True False False True (\"FA1_2.ts\" 195) ((set_type (params (\"FA1_2.ts\" 195)) (record ((from \"address\") (to \"address\") (value \"nat\")) (Some ((\"from\") ((\"to\") (\"value\"))))) (\"FA1_2.ts\" 60)) (verify (not (attr (attr (data) \"config\" (\"FA1_2.ts\" 123)) \"paused\" (\"FA1_2.ts\" 123)) (\"FA1_2.ts\" 123)) (literal (string \"FA1.2_Paused\") (\"FA1_2.ts\" 5)) (\"FA1_2.ts\" 123)) (verify (or (eq (attr (params (\"FA1_2.ts\" 204)) \"from\" (\"FA1_2.ts\" 204)) (sender) (\"FA1_2.ts\" 204)) (ge (getItem (attr (getItem (attr (data) \"balances\" (\"FA1_2.ts\" 205)) (attr (params (\"FA1_2.ts\" 205)) \"from\" (\"FA1_2.ts\" 205)) (\"FA1_2.ts\" 205)) \"approvals\" (\"FA1_2.ts\" 205)) (sender) (\"FA1_2.ts\" 205)) (attr (params (\"FA1_2.ts\" 205)) \"value\" (\"FA1_2.ts\" 205)) (\"FA1_2.ts\" 205)) (\"FA1_2.ts\" 204)) (literal (string \"FA1.2_NotAllowed\") (\"FA1_2.ts\" 6)) (\"FA1_2.ts\" 203)) (ifBlock (not (contains (attr (data) \"balances\" (\"FA1_2.ts\" 138)) (attr (params (\"FA1_2.ts\" 210)) \"from\" (\"FA1_2.ts\" 210)) (\"FA1_2.ts\" 138)) (\"FA1_2.ts\" 210)) ((defineLocal \"value\" (record (\"FA1_2.ts\" 211) (approvals (map (\"FA1_2.ts\" 211) )) (balance (literal (nat 0) (\"FA1_2.ts\" 211)))) (\"FA1_2.ts\" 211)) (set (getItem (attr (data) \"balances\" (\"FA1_2.ts\" 212)) (attr (params (\"FA1_2.ts\" 212)) \"from\" (\"FA1_2.ts\" 212)) (\"FA1_2.ts\" 212)) (getLocal \"value\" (\"FA1_2.ts\" 212)) (\"FA1_2.ts\" 212))) (\"FA1_2.ts\" 210)) (ifBlock (not (contains (attr (data) \"balances\" (\"FA1_2.ts\" 138)) (attr (params (\"FA1_2.ts\" 216)) \"to\" (\"FA1_2.ts\" 216)) (\"FA1_2.ts\" 138)) (\"FA1_2.ts\" 216)) ((defineLocal \"value\" (record (\"FA1_2.ts\" 217) (approvals (map (\"FA1_2.ts\" 217) )) (balance (literal (nat 0) (\"FA1_2.ts\" 217)))) (\"FA1_2.ts\" 217)) (set (getItem (attr (data) \"balances\" (\"FA1_2.ts\" 218)) (attr (params (\"FA1_2.ts\" 218)) \"to\" (\"FA1_2.ts\" 218)) (\"FA1_2.ts\" 218)) (getLocal \"value\" (\"FA1_2.ts\" 218)) (\"FA1_2.ts\" 218))) (\"FA1_2.ts\" 216)) (verify (ge (attr (getItem (attr (data) \"balances\" (\"FA1_2.ts\" 221)) (attr (params (\"FA1_2.ts\" 221)) \"from\" (\"FA1_2.ts\" 221)) (\"FA1_2.ts\" 221)) \"balance\" (\"FA1_2.ts\" 221)) (attr (params (\"FA1_2.ts\" 221)) \"value\" (\"FA1_2.ts\" 221)) (\"FA1_2.ts\" 221)) (literal (string \"FA1.2_InsufficientBalance\") (\"FA1_2.ts\" 3)) (\"FA1_2.ts\" 221)) (set (attr (getItem (attr (data) \"balances\" (\"FA1_2.ts\" 223)) (attr (params (\"FA1_2.ts\" 223)) \"from\" (\"FA1_2.ts\" 223)) (\"FA1_2.ts\" 223)) \"balance\" (\"FA1_2.ts\" 223)) (openVariant (isNat (sub (attr (getItem (attr (data) \"balances\" (\"FA1_2.ts\" 223)) (attr (params (\"FA1_2.ts\" 223)) \"from\" (\"FA1_2.ts\" 223)) (\"FA1_2.ts\" 223)) \"balance\" (\"FA1_2.ts\" 223)) (attr (params (\"FA1_2.ts\" 224)) \"value\" (\"FA1_2.ts\" 224)) (\"FA1_2.ts\" 223)) (\"FA1_2.ts\" 223)) \"Some\" \"None\" (\"FA1_2.ts\" 223)) (\"FA1_2.ts\" 223)) (set (attr (getItem (attr (data) \"balances\" (\"FA1_2.ts\" 225)) (attr (params (\"FA1_2.ts\" 225)) \"to\" (\"FA1_2.ts\" 225)) (\"FA1_2.ts\" 225)) \"balance\" (\"FA1_2.ts\" 225)) (add (attr (getItem (attr (data) \"balances\" (\"FA1_2.ts\" 225)) (attr (params (\"FA1_2.ts\" 225)) \"to\" (\"FA1_2.ts\" 225)) (\"FA1_2.ts\" 225)) \"balance\" (\"FA1_2.ts\" 225)) (attr (params (\"FA1_2.ts\" 225)) \"value\" (\"FA1_2.ts\" 225)) (\"FA1_2.ts\" 225)) (\"FA1_2.ts\" 225)) (ifBlock (neq (attr (params (\"FA1_2.ts\" 228)) \"from\" (\"FA1_2.ts\" 228)) (sender) (\"FA1_2.ts\" 228)) ((defineLocal \"approval\" (openVariant (isNat (sub (getItem (attr (getItem (attr (data) \"balances\" (\"FA1_2.ts\" 229)) (attr (params (\"FA1_2.ts\" 229)) \"from\" (\"FA1_2.ts\" 229)) (\"FA1_2.ts\" 229)) \"approvals\" (\"FA1_2.ts\" 229)) (sender) (\"FA1_2.ts\" 229)) (attr (params (\"FA1_2.ts\" 229)) \"value\" (\"FA1_2.ts\" 229)) (\"FA1_2.ts\" 229)) (\"FA1_2.ts\" 229)) \"Some\" \"None\" (\"FA1_2.ts\" 229)) (\"FA1_2.ts\" 229)) (set (getItem (attr (getItem (attr (data) \"balances\" (\"FA1_2.ts\" 230)) (attr (params (\"FA1_2.ts\" 230)) \"from\" (\"FA1_2.ts\" 230)) (\"FA1_2.ts\" 230)) \"approvals\" (\"FA1_2.ts\" 230)) (sender) (\"FA1_2.ts\" 230)) (getLocal \"approval\" (\"FA1_2.ts\" 230)) (\"FA1_2.ts\" 230))) (\"FA1_2.ts\" 228)))) (updateMetadata True False False True (\"FA1_2.ts\" 234) ((set_type (params (\"FA1_2.ts\" 234)) (bigmap \"string\" \"bytes\") (\"FA1_2.ts\" 235)) (verify (eq (sender) (attr (attr (data) \"config\" (\"FA1_2.ts\" 131)) \"admin\" (\"FA1_2.ts\" 131)) (\"FA1_2.ts\" 131)) (literal (string \"FA1.2_NotAdmin\") (\"FA1_2.ts\" 2)) (\"FA1_2.ts\" 131)) (set (attr (data) \"metadata\" (\"FA1_2.ts\" 238)) (params (\"FA1_2.ts\" 238)) (\"FA1_2.ts\" 238)))) (getAdministrator True False False True (\"FA1_2.ts\" 241) ((set_type (params (\"FA1_2.ts\" 241)) (tuple \"unit\" (contract \"address\")) (\"FA1_2.ts\" 242)) (set (operations (\"FA1_2.ts\" 243)) (cons (transfer (attr (attr (data) \"config\" (\"FA1_2.ts\" 243)) \"admin\" (\"FA1_2.ts\" 243)) (literal (mutez 0) (\"FA1_2.ts\" 243)) (second (params (\"FA1_2.ts\" 243)) (\"FA1_2.ts\" 243)) (\"FA1_2.ts\" 243)) (operations (\"FA1_2.ts\" 243)) (\"FA1_2.ts\" 243)) (\"FA1_2.ts\" 243)))) (getAllowance True False False True (\"FA1_2.ts\" 246) ((set_type (params (\"FA1_2.ts\" 246)) (tuple (record ((owner \"address\") (spender \"address\")) None) (contract \"nat\")) (\"FA1_2.ts\" 247)) (defineLocal \"allowance\" (literal (intOrNat 0) (\"FA1_2.ts\" 248)) (\"FA1_2.ts\" 248)) (ifBlock (contains (attr (data) \"balances\" (\"FA1_2.ts\" 138)) (attr (first (params (\"FA1_2.ts\" 249)) (\"FA1_2.ts\" 249)) \"owner\" (\"FA1_2.ts\" 249)) (\"FA1_2.ts\" 138)) ((set (getLocal \"allowance\" (\"FA1_2.ts\" 250)) (getItemDefault (attr (getItem (attr (data) \"balances\" (\"FA1_2.ts\" 250)) (attr (first (params (\"FA1_2.ts\" 250)) (\"FA1_2.ts\" 250)) \"owner\" (\"FA1_2.ts\" 250)) (\"FA1_2.ts\" 250)) \"approvals\" (\"FA1_2.ts\" 250)) (attr (first (params (\"FA1_2.ts\" 250)) (\"FA1_2.ts\" 250)) \"spender\" (\"FA1_2.ts\" 250)) (literal (intOrNat 0) (\"FA1_2.ts\" 250)) (\"FA1_2.ts\" 250)) (\"FA1_2.ts\" 250))) (\"FA1_2.ts\" 249)) (set (operations (\"FA1_2.ts\" 252)) (cons (transfer (getLocal \"allowance\" (\"FA1_2.ts\" 252)) (literal (mutez 0) (\"FA1_2.ts\" 252)) (second (params (\"FA1_2.ts\" 252)) (\"FA1_2.ts\" 252)) (\"FA1_2.ts\" 252)) (operations (\"FA1_2.ts\" 252)) (\"FA1_2.ts\" 252)) (\"FA1_2.ts\" 252)))) (getBalance True False False True (\"FA1_2.ts\" 255) ((set_type (params (\"FA1_2.ts\" 255)) (tuple \"address\" (contract \"nat\")) (\"FA1_2.ts\" 256)) (defineLocal \"balance\" (literal (intOrNat 0) (\"FA1_2.ts\" 257)) (\"FA1_2.ts\" 257)) (ifBlock (contains (attr (data) \"balances\" (\"FA1_2.ts\" 138)) (first (params (\"FA1_2.ts\" 258)) (\"FA1_2.ts\" 258)) (\"FA1_2.ts\" 138)) ((set (getLocal \"balance\" (\"FA1_2.ts\" 259)) (attr (getItem (attr (data) \"balances\" (\"FA1_2.ts\" 259)) (first (params (\"FA1_2.ts\" 259)) (\"FA1_2.ts\" 259)) (\"FA1_2.ts\" 259)) \"balance\" (\"FA1_2.ts\" 259)) (\"FA1_2.ts\" 259))) (\"FA1_2.ts\" 258)) (set (operations (\"FA1_2.ts\" 261)) (cons (transfer (getLocal \"balance\" (\"FA1_2.ts\" 261)) (literal (mutez 0) (\"FA1_2.ts\" 261)) (second (params (\"FA1_2.ts\" 261)) (\"FA1_2.ts\" 261)) (\"FA1_2.ts\" 261)) (operations (\"FA1_2.ts\" 261)) (\"FA1_2.ts\" 261)) (\"FA1_2.ts\" 261)))) (getTotalSupply True False False True (\"FA1_2.ts\" 264) ((set_type (params (\"FA1_2.ts\" 264)) (tuple \"unit\" (contract \"nat\")) (\"FA1_2.ts\" 265)) (set (operations (\"FA1_2.ts\" 266)) (cons (transfer (attr (data) \"totalSupply\" (\"FA1_2.ts\" 266)) (literal (mutez 0) (\"FA1_2.ts\" 266)) (second (params (\"FA1_2.ts\" 266)) (\"FA1_2.ts\" 266)) (\"FA1_2.ts\" 266)) (operations (\"FA1_2.ts\" 266)) (\"FA1_2.ts\" 266)) (\"FA1_2.ts\" 266)))))\n            flags ()\n            globals ()\n            views ((token_metadata True (\"FA1_2.ts\" 94) True \"Return the token-metadata URI for the given token.\" ( (set_type (params (\"FA1_2.ts\" 94)) \"nat\" (\"FA1_2.ts\" 94))(result (getItem (attr (data) \"token_metadata\" (\"FA1_2.ts\" 95)) (params (\"FA1_2.ts\" 95)) (\"FA1_2.ts\" 95)) (\"FA1_2.ts\" 95)))))\n            entry_points_layout ()\n            initial_metadata ((metadata (meta_map (\"FA1_2.ts\" 141) (elem (literal (string \"name\") (\"FA1_2.ts\" 105)) (meta_expr (literal (string \"SmartPy FA1.2 Token Template\") (\"FA1_2.ts\" 105)))) (elem (literal (string \"description\") (\"FA1_2.ts\" 106)) (meta_expr (literal (string \"Example Template for an FA1.2 Contract from SmartPy\") (\"FA1_2.ts\" 106)))) (elem (literal (string \"authors\") (\"FA1_2.ts\" 107)) (meta_list (\"FA1_2.ts\" 107) (meta_expr (literal (string \"SmartPy Dev Team <email@domain.com>\") (\"FA1_2.ts\" 107))))) (elem (literal (string \"homepage\") (\"FA1_2.ts\" 108)) (meta_expr (literal (string \"https://smartpy.io\") (\"FA1_2.ts\" 108)))) (elem (literal (string \"interfaces\") (\"FA1_2.ts\" 109)) (meta_list (\"FA1_2.ts\" 109) (meta_expr (literal (string \"TZIP-007-2021-04-17\") (\"FA1_2.ts\" 109))) (meta_expr (literal (string \"TZIP-016-2021-04-17\") (\"FA1_2.ts\" 109))))) (elem (literal (string \"views\") (\"FA1_2.ts\" 110)) (meta_list (\"FA1_2.ts\" 110) (meta_offchain_view \"token_metadata\" (\"FA1_2.ts\" 110)))))))\n            balance (literal (mutez 0) (\"FA1_2.ts\" 141))\n        )",
                "line_no": "(\"FA1_2.ts\" 141)",
                "show": true,
                "accept_unknown_types": false
            }
        ],
        "longname": "version_1",
        "shortname": "version_1",
        "show": false
    }
]