[
  {
    "prim": "storage",
    "args": [
      {
        "prim": "pair",
        "args": [
          { "prim": "nat", "annots": [ "%counter" ] },
          { "prim": "pair", "args": [ { "prim": "address", "annots": [ "%onEven" ] }, { "prim": "address", "annots": [ "%onOdd" ] } ] }
        ]
      }
    ]
  },
  { "prim": "parameter", "args": [ { "prim": "or", "args": [ { "prim": "unit", "annots": [ "%reset" ] }, { "prim": "nat", "annots": [ "%run" ] } ] } ] },
  {
    "prim": "code",
    "args": [
      [
        { "prim": "UNPAIR" },
        {
          "prim": "IF_LEFT",
          "args": [
            [
              { "prim": "DROP" },
              { "prim": "PUSH", "args": [ { "prim": "nat" }, { "int": "0" } ] },
              { "prim": "UPDATE", "args": [ { "int": "1" } ] },
              { "prim": "NIL", "args": [ { "prim": "operation" } ] }
            ],
            [
              { "prim": "DUP" },
              { "prim": "PUSH", "args": [ { "prim": "nat" }, { "int": "1" } ] },
              { "prim": "COMPARE" },
              { "prim": "LT" },
              {
                "prim": "IF",
                "args": [
                  [
                    { "prim": "SWAP" },
                    { "prim": "DUP" },
                    { "prim": "CAR" },
                    { "prim": "PUSH", "args": [ { "prim": "nat" }, { "int": "1" } ] },
                    { "prim": "ADD" },
                    { "prim": "UPDATE", "args": [ { "int": "1" } ] },
                    { "prim": "SWAP" },
                    { "prim": "DUP" },
                    { "prim": "SELF", "annots": [ "%run" ] },
                    { "prim": "PAIR" },
                    { "prim": "PUSH", "args": [ { "prim": "nat" }, { "int": "0" } ] },
                    { "prim": "PUSH", "args": [ { "prim": "nat" }, { "int": "2" } ] },
                    { "prim": "DIG", "args": [ { "int": "3" } ] },
                    { "prim": "EDIV" },
                    { "prim": "IF_NONE", "args": [ [ { "prim": "PUSH", "args": [ { "prim": "int" }, { "int": "23" } ] }, { "prim": "FAILWITH" } ], [ { "prim": "CDR" } ] ] },
                    { "prim": "COMPARE" },
                    { "prim": "EQ" },
                    {
                      "prim": "IF",
                      "args": [
                        [
                          { "prim": "NIL", "args": [ { "prim": "operation" } ] },
                          { "prim": "DUP", "args": [ { "int": "3" } ] },
                          { "prim": "GET", "args": [ { "int": "3" } ] },
                          { "prim": "CONTRACT", "args": [ { "prim": "pair", "args": [ { "prim": "contract", "args": [ { "prim": "nat" } ] }, { "prim": "nat" } ] } ] },
                          { "prim": "IF_NONE", "args": [ [ { "prim": "PUSH", "args": [ { "prim": "int" }, { "int": "24" } ] }, { "prim": "FAILWITH" } ], [] ] },
                          { "prim": "PUSH", "args": [ { "prim": "mutez" }, { "int": "0" } ] },
                          { "prim": "DIG", "args": [ { "int": "3" } ] },
                          { "prim": "TRANSFER_TOKENS" },
                          { "prim": "CONS" }
                        ],
                        [
                          { "prim": "NIL", "args": [ { "prim": "operation" } ] },
                          { "prim": "DUP", "args": [ { "int": "3" } ] },
                          { "prim": "GET", "args": [ { "int": "4" } ] },
                          { "prim": "CONTRACT", "args": [ { "prim": "pair", "args": [ { "prim": "contract", "args": [ { "prim": "nat" } ] }, { "prim": "nat" } ] } ] },
                          { "prim": "IF_NONE", "args": [ [ { "prim": "PUSH", "args": [ { "prim": "int" }, { "int": "26" } ] }, { "prim": "FAILWITH" } ], [] ] },
                          { "prim": "PUSH", "args": [ { "prim": "mutez" }, { "int": "0" } ] },
                          { "prim": "DIG", "args": [ { "int": "3" } ] },
                          { "prim": "TRANSFER_TOKENS" },
                          { "prim": "CONS" }
                        ]
                      ]
                    }
                  ],
                  [ { "prim": "DROP" }, { "prim": "NIL", "args": [ { "prim": "operation" } ] } ]
                ]
              }
            ]
          ]
        },
        { "prim": "PAIR" }
      ]
    ]
  }
]