<?xml version="1.0" encoding="UTF-8" standalone="no"?>
<svg
   xmlns="http://www.w3.org/2000/svg"
   height="317"
   width="1200"
   version="1.1">
  <path
     d="M 50,124 C 16.666667,41.333333 33.333333,82.666667 50,124 Z"
     style="fill:#66aacc;stroke:none" />
  <path
     d="M 0,153 V 72 L 125.5,0 252,73 v 54.5 l -72,42.5 -73,-42 19,-11 53,31 53,-31 V 84.5 L 126,22 20,84 v 58 z"
     style="fill:#006dcc;stroke-width:0.767855"/>
  <path
     d="m 51,102 74.20465,-43.07113 71.5907,41.14226 L 178.5,111 126,80 51,123 Z"
     style="fill:#66aacc;fill-opacity:1" />
  <path
     d="m 252,164 v 81 L 126.5,317 0,244 v -54.5 l 72,-42.5 73,42 -19,11 -53,-31 -53,31 v 32.5 L 126,295 232,233 v -58 z"
     style="fill:#006dcc;stroke-width:0.767855"/>
  <path
     d="M 199.79534,215 125.59069,258.07114 54,216.92887 72.29535,206 l 52.49999,31 75,-43 z"
     style="fill:#66aacc;fill-opacity:1"/>
  <text
     xml:space="preserve"
     style="font-style:normal;font-variant:normal;font-weight:bold;font-stretch:normal;font-size:160px;line-height:1.25;font-family:serif;-inkscape-font-specification:'serif Bold';letter-spacing:0px;word-spacing:0px;fill-opacity:1;stroke:none"
     x="319.1488"
     y="221.00032"
   >
      <tspan
       style="font-style:normal;font-variant:normal;font-weight:normal;font-stretch:normal;font-family:sans-serif;-inkscape-font-specification:sans-serif;letter-spacing:10px"/>
      <tspan
       x="319.1488"
       y="221.00032"
       style="font-style:normal;font-variant:normal;font-weight:normal;font-stretch:normal;font-size:160px;font-family:sans-serif;-inkscape-font-specification:sans-serif;letter-spacing:10px;fill-opacity:1">SMART<tspan
         style="font-style:normal;font-variant:normal;font-weight:bold;font-stretch:normal;font-family:sans-serif;-inkscape-font-specification:'sans-serif Bold';letter-spacing:10px">PY</tspan>
      </tspan>
   </text>
</svg>
