[
  {
    "prim": "storage",
    "args": [
      {
        "prim": "pair",
        "args": [ { "prim": "option", "args": [ { "prim": "bytes" } ], "annots": [ "%bytes" ] }, { "prim": "option", "args": [ { "prim": "nat" } ], "annots": [ "%size" ] } ]
      }
    ]
  },
  {
    "prim": "parameter",
    "args": [
      {
        "prim": "or",
        "args": [
          { "prim": "unit", "annots": [ "%concat" ] },
          { "prim": "or", "args": [ { "prim": "bytes", "annots": [ "%size" ] }, { "prim": "unit", "annots": [ "%slice" ] } ] }
        ]
      }
    ]
  },
  {
    "prim": "code",
    "args": [
      [
        { "prim": "UNPAIR" },
        {
          "prim": "IF_LEFT",
          "args": [
            [
              { "prim": "DROP" },
              { "prim": "PUSH", "args": [ { "prim": "bytes" }, { "bytes": "0dae11" } ] },
              { "prim": "PUSH", "args": [ { "prim": "bytes" }, { "bytes": "0001" } ] },
              { "prim": "DIG", "args": [ { "int": "2" } ] },
              { "prim": "SWAP" },
              { "prim": "DIG", "args": [ { "int": "2" } ] },
              { "prim": "PUSH", "args": [ { "prim": "bytes" }, { "bytes": "0000" } ] },
              { "prim": "CONCAT" },
              { "prim": "CONCAT" },
              { "prim": "SOME" },
              { "prim": "UPDATE", "args": [ { "int": "1" } ] }
            ],
            [
              {
                "prim": "IF_LEFT",
                "args": [
                  [ { "prim": "SIZE" }, { "prim": "SOME" }, { "prim": "UPDATE", "args": [ { "int": "2" } ] } ],
                  [
                    { "prim": "DROP" },
                    { "prim": "DUP" },
                    { "prim": "CAR" },
                    { "prim": "IF_NONE", "args": [ [ { "prim": "PUSH", "args": [ { "prim": "string" }, { "string": "Error: Empty value" } ] }, { "prim": "FAILWITH" } ], [] ] },
                    { "prim": "PUSH", "args": [ { "prim": "nat" }, { "int": "4" } ] },
                    { "prim": "PUSH", "args": [ { "prim": "nat" }, { "int": "2" } ] },
                    { "prim": "SLICE" },
                    {
                      "prim": "IF_NONE",
                      "args": [ [ { "prim": "PUSH", "args": [ { "prim": "string" }, { "string": "Error: offset/length invalid" } ] }, { "prim": "FAILWITH" } ], [] ]
                    },
                    { "prim": "SOME" },
                    { "prim": "UPDATE", "args": [ { "int": "1" } ] }
                  ]
                ]
              }
            ]
          ]
        },
        { "prim": "NIL", "args": [ { "prim": "operation" } ] },
        { "prim": "PAIR" }
      ]
    ]
  }
]