[
    {
        "kind": "test",
        "scenario": [
            {
                "action": "newContract",
                "name": "Option",
                "id": "(static_id 0 (\"Option.ts\" 5))",
                "export": "(\n            template_id (static_id 0 (\"Option.ts\" 5))\n            storage (record (\"Option.ts\" 7) (value (variant \"None\" (unit) (\"Option.ts\" 8))))\n            storage_type ((record ((value (option \"nat\"))) None))\n            messages ((set True False False True (\"Option.ts\" 11) ((set_type (params (\"Option.ts\" 11)) \"nat\" (\"Option.ts\" 12)) (ifBlock (not (isVariant (attr (data) \"value\" (\"Option.ts\" 13)) \"Some\" (\"Option.ts\" 13)) (\"Option.ts\" 13)) ((set (attr (data) \"value\" (\"Option.ts\" 14)) (variant \"Some\" (params (\"Option.ts\" 14)) (\"Option.ts\" 14)) (\"Option.ts\" 14))) (\"Option.ts\" 13)))) (openAndAdd True False False True (\"Option.ts\" 18) ((set_type (params (\"Option.ts\" 18)) \"nat\" (\"Option.ts\" 19)) (defineLocal \"value\" (openVariant (attr (data) \"value\" (\"Option.ts\" 20)) \"Some\" (literal (string \"Error: is None\") (\"Option.ts\" 20)) (\"Option.ts\" 20)) (\"Option.ts\" 20)) (ifBlock (eq (getLocal \"value\" (\"Option.ts\" 21)) (literal (intOrNat 10) (\"Option.ts\" 21)) (\"Option.ts\" 21)) ((set (attr (data) \"value\" (\"Option.ts\" 22)) (variant \"Some\" (add (getLocal \"value\" (\"Option.ts\" 22)) (params (\"Option.ts\" 22)) (\"Option.ts\" 22)) (\"Option.ts\" 22)) (\"Option.ts\" 22))) (\"Option.ts\" 21)))))\n            flags ()\n            globals ()\n            views ()\n            entry_points_layout ()\n            initial_metadata ()\n            balance (literal (mutez 0) (\"Option.ts\" 5))\n        )",
                "line_no": "(\"Option.ts\" 5)",
                "show": true,
                "accept_unknown_types": false
            },
            {
                "action": "message",
                "line_no": "(\"Option.ts\" 29)",
                "message": "set",
                "id": "(static_id 0 (\"Option.ts\" 29))",
                "params": "(literal (nat 10) (\"Option.ts\" 29))"
            },
            {
                "action": "message",
                "line_no": "(\"Option.ts\" 30)",
                "message": "openAndAdd",
                "id": "(static_id 0 (\"Option.ts\" 30))",
                "params": "(literal (nat 10) (\"Option.ts\" 30))"
            }
        ],
        "name": "Option",
        "longname": "Option",
        "shortname": "Option",
        "profile": false,
        "show": true
    },
    {
        "kind": "compilation",
        "name": "Option_compiled",
        "scenario": [
            {
                "action": "newContract",
                "name": "Option",
                "id": "(static_id 0 (\"Option.ts\" 5))",
                "export": "(\n            template_id (static_id 0 (\"Option.ts\" 5))\n            storage (record (\"Option.ts\" 7) (value (variant \"None\" (unit) (\"Option.ts\" 8))))\n            storage_type ((record ((value (option \"nat\"))) None))\n            messages ((set True False False True (\"Option.ts\" 11) ((set_type (params (\"Option.ts\" 11)) \"nat\" (\"Option.ts\" 12)) (ifBlock (not (isVariant (attr (data) \"value\" (\"Option.ts\" 13)) \"Some\" (\"Option.ts\" 13)) (\"Option.ts\" 13)) ((set (attr (data) \"value\" (\"Option.ts\" 14)) (variant \"Some\" (params (\"Option.ts\" 14)) (\"Option.ts\" 14)) (\"Option.ts\" 14))) (\"Option.ts\" 13)))) (openAndAdd True False False True (\"Option.ts\" 18) ((set_type (params (\"Option.ts\" 18)) \"nat\" (\"Option.ts\" 19)) (defineLocal \"value\" (openVariant (attr (data) \"value\" (\"Option.ts\" 20)) \"Some\" (literal (string \"Error: is None\") (\"Option.ts\" 20)) (\"Option.ts\" 20)) (\"Option.ts\" 20)) (ifBlock (eq (getLocal \"value\" (\"Option.ts\" 21)) (literal (intOrNat 10) (\"Option.ts\" 21)) (\"Option.ts\" 21)) ((set (attr (data) \"value\" (\"Option.ts\" 22)) (variant \"Some\" (add (getLocal \"value\" (\"Option.ts\" 22)) (params (\"Option.ts\" 22)) (\"Option.ts\" 22)) (\"Option.ts\" 22)) (\"Option.ts\" 22))) (\"Option.ts\" 21)))))\n            flags ()\n            globals ()\n            views ()\n            entry_points_layout ()\n            initial_metadata ()\n            balance (literal (mutez 0) (\"Option.ts\" 5))\n        )",
                "line_no": "(\"Option.ts\" 5)",
                "show": true,
                "accept_unknown_types": false
            }
        ],
        "longname": "Option_compiled",
        "shortname": "Option_compiled",
        "show": false
    }
]